[{
    "name":"Pro MERN Stack",
    "id":"pMernStack",
    "pages":552,
    "start_page":19,
    "start_date":1604797425,
    "Activities":[]
},
{
    "name":"Mastering Javascript",
    "id":"MstJS",
    "pages":250,
    "start_page":143,
    "start_date":1604797425,
    "Activities":[]
},
{
    "name":"Mar",
    "id":"mar",
    "pages":161,
    "start_page":98,
    "start_date":1604797425,
    "Activities":[
        {"type":1, "date": 1604797425, "page":100},
        {"type":1, "date": 1604799341, "page":120}
    ]
}]
