<?xml version="1.0" encoding="iso-8859-1"?>
<!-- Generator: Adobe Illustrator 19.0.0, SVG Export Plug-In . SVG Version: 6.00 Build 0)  -->
<svg version="1.1" id="Layer_1" xmlns="http://www.w3.org/2000/svg" xmlns:xlink="http://www.w3.org/1999/xlink" x="0px" y="0px"
	 viewBox="0 0 512 512" style="enable-background:new 0 0 512 512;" xml:space="preserve">
<rect x="47.999" y="4" style="fill:#FFFFFF;" width="416.002" height="503.998"/>
<path style="fill:#CCCCCC;" d="M460,8v496h-408V8H460 M468,0H44v512h424V0z"/>
<rect x="44" style="fill:#6B6B6B;" width="59.823" height="511.999"/>
<polygon style="fill:#E21B1B;" points="299.999,0 299.999,224.472 226.8,162.928 153.599,225.696 153.599,0 "/>
<polygon style="fill:#F91E1E;" points="153.599,0 153.599,225.696 226.8,162.928 226.8,0 "/>
<g>
</g>
<g>
</g>
<g>
</g>
<g>
</g>
<g>
</g>
<g>
</g>
<g>
</g>
<g>
</g>
<g>
</g>
<g>
</g>
<g>
</g>
<g>
</g>
<g>
</g>
<g>
</g>
<g>
</g>
</svg>
